contourpy==1.0.7
cycler==0.11.0
fonttools==4.39.2
kiwisolver==1.4.4
matplotlib==3.7.1
mpmath==1.3.0
numpy==1.24.2
packaging==23.0
Pillow==9.4.0
pyparsing==3.0.9
python-dateutil==2.8.2
six==1.16.0
sympy==1.11.1
